CryptRaider/Binaries/Win64/CryptRaider-Win64-Shipping.exe	2022-08-05T18:12:00.356Z
CryptRaider/Binaries/Win64/D3D12/D3D12Core.dll	2022-07-25T03:49:01.927Z
CryptRaider/Binaries/Win64/OpenImageDenoise.dll	2022-07-25T04:06:13.926Z
CryptRaider/Binaries/Win64/tbb.dll	2022-07-25T03:48:51.170Z
CryptRaider/Binaries/Win64/tbb12.dll	2022-07-25T04:06:12.071Z
Engine/Extras/Redist/en-us/UEPrereqSetup_x64.exe	2022-07-25T03:52:44.459Z
Engine/Binaries/ThirdParty/DbgHelp/dbghelp.dll	2022-07-25T03:48:37.442Z
Engine/Binaries/ThirdParty/NVIDIA/GeForceNOW/Win64/GfnRuntimeSdk.dll	2022-07-25T03:48:53.279Z
Engine/Binaries/ThirdParty/NVIDIA/NVaftermath/Win64/GFSDK_Aftermath_Lib.x64.dll	2022-07-25T03:48:53.283Z
Engine/Binaries/ThirdParty/Ogg/Win64/VS2015/libogg_64.dll	2022-07-25T03:48:53.666Z
Engine/Binaries/ThirdParty/PhysX3/Win64/VS2015/PhysX3_x64.dll	2022-07-25T03:48:57.054Z
Engine/Binaries/ThirdParty/PhysX3/Win64/VS2015/PhysX3Common_x64.dll	2022-07-25T03:48:57.329Z
Engine/Binaries/ThirdParty/PhysX3/Win64/VS2015/PhysX3Cooking_x64.dll	2022-07-25T03:48:57.597Z
Engine/Binaries/ThirdParty/PhysX3/Win64/VS2015/PxFoundation_x64.dll	2022-07-25T03:48:57.947Z
Engine/Binaries/ThirdParty/PhysX3/Win64/VS2015/PxPvdSDK_x64.dll	2022-07-25T03:48:57.955Z
Engine/Binaries/ThirdParty/Vorbis/Win64/VS2015/libvorbis_64.dll	2022-07-25T03:49:01.844Z
Engine/Binaries/ThirdParty/Vorbis/Win64/VS2015/libvorbisfile_64.dll	2022-07-25T03:49:01.844Z
Engine/Binaries/ThirdParty/Windows/XAudio2_9/x64/xaudio2_9redist.dll	2022-07-25T03:49:02.312Z
CryptRaider.exe	2022-08-05T18:58:21.355Z
