{
	"AssetInfoVersion": 2,
	"ShaderCodeToAssets": [
		{
			"ShaderMapHash": "CD2B01ED531CE4C68A1892DABE2A6131F535DBC8",
			"Assets": [
				"/ControlRig/Controls/ControlRigGizmoMaterial"
			]
		},
		{
			"ShaderMapHash": "C0B2A7F335FC62A023E1D59DE2ADBD3C72F13800",
			"Assets": [
				"/Engine/EngineDebugMaterials/DebugEditorMaterial"
			]
		},
		{
			"ShaderMapHash": "211087F62EFBB7C1BE4972E660D86BC3FFBFC5C0",
			"Assets": [
				"/Engine/EngineMaterials/GizmoMaterial"
			]
		},
		{
			"ShaderMapHash": "EACFA4020082090A51165F6F8F385B9C8ABCC6B2",
			"Assets": [
				"/Engine/EngineDebugMaterials/DebugMeshMaterial"
			]
		},
		{
			"ShaderMapHash": "B75365FD1D472D9BDDB570FDE8960C5F56236FF0",
			"Assets": [
				"/Engine/EngineMaterials/RemoveSurfaceMaterial"
			]
		},
		{
			"ShaderMapHash": "580BAEC620B37DE8A1FE8FC479D667FE85792074",
			"Assets": [
				"/HairStrands/Materials/HairMeshesDefaultMaterial",
				"/HairStrands/Materials/HairDefaultMaterial"
			]
		},
		{
			"ShaderMapHash": "6118C2EF81328E746F6736EACA89ADF8A3761CC6",
			"Assets": [
				"/HairStrands/Materials/HairCardsDefaultMaterial"
			]
		},
		{
			"ShaderMapHash": "84E02F5928102B7C930E738C991C08D607470873",
			"Assets": [
				"/Engine/EngineDebugMaterials/M_SimpleUnlitTranslucent"
			]
		},
		{
			"ShaderMapHash": "DC662FADED5C77B6D4456A8A78B04DCC16D274EC",
			"Assets": [
				"/Engine/EditorMaterials/Camera/CineMat"
			]
		},
		{
			"ShaderMapHash": "64F711963ED34B6AF1EE61A4B93FC8E3225B225E",
			"Assets": [
				"/Engine/VREditor/TransformGizmo/Xray"
			]
		},
		{
			"ShaderMapHash": "6BC4F45367FAC73ACCAFA8CD9667AB56C2F23608",
			"Assets": [
				"/Engine/VREditor/TransformGizmo/Main"
			]
		},
		{
			"ShaderMapHash": "C04C5B9338BB5E7A5A56E8EB14F31D97127A7D8B",
			"Assets": [
				"/Engine/VREditor/TransformGizmo/TranslucentTransformGizmoMaterial"
			]
		},
		{
			"ShaderMapHash": "EC0B9E24AAAB5DF9FA2D660C0AA56DC12CB5C37E",
			"Assets": [
				"/Engine/EngineMaterials/DefaultLightFunctionMaterial"
			]
		},
		{
			"ShaderMapHash": "C3F3623987974F4EFC7FEDC37DB6BEB46B219426",
			"Assets": [
				"/Game/MedievalDungeon/Materials/M_Torch_Flicker_Light_Function",
				"/Game/MedievalDungeon/Materials/M_Flicker_Light_Function"
			]
		},
		{
			"ShaderMapHash": "4BA8896BE742775FC7859DAF5013C6E9845265CF",
			"Assets": [
				"/Game/LevelPrototyping/Materials/M_Solid"
			]
		},
		{
			"ShaderMapHash": "A583EAD8CCEE3C8094B2B46535089EE2DE8CE545",
			"Assets": [
				"/Game/FPWeapon/Materials/BaseMaterial"
			]
		},
		{
			"ShaderMapHash": "9CCBF56CDD8E0AD8CC31A8435C88D743B98E9ED1",
			"Assets": [
				"/Engine/EngineMaterials/FlattenMaterial_WS_Normal_VT"
			]
		},
		{
			"ShaderMapHash": "51C7B05DD3F62879F54D0D1972E720772888456B",
			"Assets": [
				"/Engine/EngineMaterials/FlattenMaterial_VT",
				"/Engine/EngineMaterials/FlattenMaterial"
			]
		},
		{
			"ShaderMapHash": "E1F40DFD96D8AE3D0F8486C03725DDC2EEC53AD0",
			"Assets": [
				"/Engine/EngineMaterials/M_InvalidLightmapSettings"
			]
		},
		{
			"ShaderMapHash": "A6AA03CB707A2A35E6B21885A08ED26D847E4CE1",
			"Assets": [
				"/Engine/EngineMaterials/EmissiveMeshMaterial"
			]
		},
		{
			"ShaderMapHash": "58A68BB5B77A48E89954C130CB804AAF701FD854",
			"Assets": [
				"/Engine/EngineDebugMaterials/M_VolumeRenderSphereTracePP"
			]
		},
		{
			"ShaderMapHash": "F9263927B9A447444CEB25F0683B99FA6EDE8534",
			"Assets": [
				"/Engine/EngineMaterials/PhAT_JointLimitMaterial"
			]
		},
		{
			"ShaderMapHash": "3B599E1E84C6BED8F66AF5A2D1125FB845FE4CAB",
			"Assets": [
				"/ControlRig/M_Manip"
			]
		},
		{
			"ShaderMapHash": "CEB6981B8784CDFA2490593B8D2E0D49BD6FF41E",
			"Assets": [
				"/Paper2D/DefaultSpriteMaterial"
			]
		},
		{
			"ShaderMapHash": "ECC697C48BA966F0825110EFF887124C8B715EF3",
			"Assets": [
				"/Engine/VREditor/TransformGizmo/TransformGizmoMaterial"
			]
		},
		{
			"ShaderMapHash": "6B155BF25ABE1B5D74C1CCF6398D60B69E8E7C0A",
			"Assets": [
				"/Engine/EditorMaterials/WorldPartition/WorldPartitionSpatialHashGridPreviewMaterial"
			]
		},
		{
			"ShaderMapHash": "7E49B2C7E4F45A769712E5F5D597423E50A31090",
			"Assets": [
				"/HairStrands/Materials/HairDebugMaterial"
			]
		},
		{
			"ShaderMapHash": "3F7895F3B3EC85C81839B53617DEF4F1A94DA828",
			"Assets": [
				"/Engine/EngineSky/VolumetricClouds/m_SimpleVolumetricCloud"
			]
		},
		{
			"ShaderMapHash": "8C73641D32B7DA2DEF6B40664D0A99BA9A0CD673",
			"Assets": [
				"/Engine/EngineMaterials/DefaultPostProcessMaterial"
			]
		},
		{
			"ShaderMapHash": "1A91267099E00CB6E114581FBC960569A39E5CE2",
			"Assets": [
				"/Engine/EngineMaterials/DefaultDeferredDecalMaterial"
			]
		},
		{
			"ShaderMapHash": "6CE9731DBD31520A0F28233FD6C531B40ED2E593",
			"Assets": [
				"/Engine/EngineMaterials/DefaultMaterial"
			]
		},
		{
			"ShaderMapHash": "25505245776F29D612F7A2A47DF00B8F08CF6DFD",
			"Assets": [
				"/Engine/EngineMaterials/WorldGridMaterial"
			]
		},
		{
			"ShaderMapHash": "8ACAFDF4D8347920962FFA6E6E976F915609C626",
			"Assets": [
				"/Engine/EngineMaterials/DefaultTextMaterialOpaque"
			]
		},
		{
			"ShaderMapHash": "B43D983CD3BDA59466984205703D5D9E6F5FE1F6",
			"Assets": [
				"/Engine/EngineMaterials/Widget3DPassThrough",
				"/Engine/EngineMaterials/Widget3DPassThrough_Translucent_OneSided"
			]
		},
		{
			"ShaderMapHash": "C2E563CA72CD446FE90EEB20A5E098A2B5C3CDC8",
			"Assets": [
				"/Game/MedievalDungeon/Particles/Materials/M_Heat_Distortion"
			]
		},
		{
			"ShaderMapHash": "F11FC7EAA72C2988ED2280A2E82CA7F129B54FB9",
			"Assets": [
				"/Game/MedievalDungeon/Materials/M_Statue_Stand_Inst"
			]
		},
		{
			"ShaderMapHash": "EEB7F4F4286C09A68CD8F35086A284B35FDDFC46",
			"Assets": [
				"/Game/MedievalDungeon/Materials/M_Statue"
			]
		},
		{
			"ShaderMapHash": "6F051687858CE0FB0D8C61AE27CCDD79D6C88A9D",
			"Assets": [
				"/Game/MedievalDungeon/Materials/M_Skeleton_Dirty"
			]
		},
		{
			"ShaderMapHash": "81FCE478ACAF1C47903CCEE90DA8B2502F837953",
			"Assets": [
				"/Game/MedievalDungeon/Particles/Materials/M_smoke_subUV"
			]
		},
		{
			"ShaderMapHash": "0068F996E288CF91C3D2ABEC00A92BE798E149C0",
			"Assets": [
				"/Game/MedievalDungeon/Particles/Materials/M_Fire_SubUV"
			]
		},
		{
			"ShaderMapHash": "5ADB562704C890634A8495B27B209E3676C2E6F9",
			"Assets": [
				"/Game/MedievalDungeon/Particles/Materials/M_CandleFlame"
			]
		},
		{
			"ShaderMapHash": "B150AA951472CA41983BB3A161BDDC7C261898CA",
			"Assets": [
				"/Engine/EngineMaterials/PPM_DefaultCalibrationGrayscale"
			]
		},
		{
			"ShaderMapHash": "CC55EA1DC806B30DD6AE1628892C72F7943F02A8",
			"Assets": [
				"/Engine/EngineMaterials/PPM_DefaultCalibrationColor"
			]
		},
		{
			"ShaderMapHash": "CA5E52CACC8C177679D06C910BA38FFD19582423",
			"Assets": [
				"/Engine/EditorMaterials/PreviewShadowIndicatorMaterial"
			]
		},
		{
			"ShaderMapHash": "F2BAD59CFA8965E2779AB525E3691189F8E8A41E",
			"Assets": [
				"/Game/MedievalDungeon/Particles/Materials/M_Radial_Gradient"
			]
		},
		{
			"ShaderMapHash": "2B690385B3F22B6A777471A7ECBD8E079C1E8244",
			"Assets": [
				"/Game/MedievalDungeon/Materials/M_Candles_Master"
			]
		},
		{
			"ShaderMapHash": "E9E6C9BB8C80820E8A0EDD8DCFEE711FDDF17CF1",
			"Assets": [
				"/Engine/EngineSky/M_Sky_Panning_Clouds2"
			]
		},
		{
			"ShaderMapHash": "37B94DC71D67C16A174E6D53610F3563F078DD9F",
			"Assets": [
				"/Game/FirstPersonArms/Character/Materials/M_UE4Man_Body"
			]
		},
		{
			"ShaderMapHash": "CE5D72DE311D46F68FCE2027B9A3DAF2DB389E47",
			"Assets": [
				"/Paper2D/OpaqueUnlitSpriteMaterial"
			]
		},
		{
			"ShaderMapHash": "E171CFA61F0313D35C414F4721E393617AAFB691",
			"Assets": [
				"/SpeedTreeImporter/SpeedTree9/SpeedTreeBillboardMaster"
			]
		},
		{
			"ShaderMapHash": "14CC31EF34BEE66179FCF777D126490DD5DFA5DD",
			"Assets": [
				"/SpeedTreeImporter/SpeedTree9/SpeedTreeMaster"
			]
		},
		{
			"ShaderMapHash": "648B34FBF1A6265873DAA2FDE756E9E90165B27A",
			"Assets": [
				"/Engine/EngineMaterials/Widget3DPassThrough_Masked"
			]
		},
		{
			"ShaderMapHash": "08AB2FB6F0B0D7F55EC432ED817F96CBDE053FE7",
			"Assets": [
				"/Engine/EngineMaterials/Widget3DPassThrough_Opaque"
			]
		},
		{
			"ShaderMapHash": "23B1EF696CB55868211558A2D14ECFFBB29B851A",
			"Assets": [
				"/Engine/EngineMaterials/Widget3DPassThrough_Translucent"
			]
		},
		{
			"ShaderMapHash": "B9AD60DF853B26394425B71BFC71BB9BF86DD85E",
			"Assets": [
				"/Game/FPWeapon/Materials/M_FPGun"
			]
		},
		{
			"ShaderMapHash": "628471BA835D662E33A8BACB299E6A2135F10090",
			"Assets": [
				"/Game/MedievalDungeon/Materials/M_Candles_Inst"
			]
		},
		{
			"ShaderMapHash": "A966AF7A845EBA850589E539528C9194A27F7B78",
			"Assets": [
				"/Game/MedievalDungeon/Materials/M_Master"
			]
		},
		{
			"ShaderMapHash": "3B2B19FA5414E6DAD9643AF0062E6F480FA16D8E",
			"Assets": [
				"/Engine/EngineMaterials/Widget3DPassThrough_Masked_OneSided"
			]
		},
		{
			"ShaderMapHash": "3A21A22B26B50FF022F4DB6451E17D307A26F2AF",
			"Assets": [
				"/Engine/EngineMaterials/Widget3DPassThrough_Opaque_OneSided"
			]
		},
		{
			"ShaderMapHash": "82FA1B69661E3A54D3C1A73DB12FD906CAA494AB",
			"Assets": [
				"/Game/LevelPrototyping/Materials/M_PrototypeGrid",
				"/Game/LevelPrototyping/Materials/MI_PrototypeGrid_Gray_02"
			]
		},
		{
			"ShaderMapHash": "A9FC2FDCB60C157399DB16A643815B2C9338F256",
			"Assets": [
				"/Game/MedievalDungeon/Materials/M_Chains_Inst",
				"/Game/MedievalDungeon/Materials/M_Candle_Holder_Inst"
			]
		},
		{
			"ShaderMapHash": "4A657E0B71904D2809307E0D71997E1DEAFCB4EC",
			"Assets": [
				"/Game/MedievalDungeon/Materials/M_Tiling_Master"
			]
		},
		{
			"ShaderMapHash": "29C64B2FCF7D80889A787B48F8602C5CDC4F807B",
			"Assets": [
				"/Game/LevelPrototyping/Materials/MI_PrototypeGrid_TopDark"
			]
		},
		{
			"ShaderMapHash": "419EE9E96F6EFD06A21D0F8BA7433C8F5C9FDF70",
			"Assets": [
				"/Game/LevelPrototyping/Materials/MI_PrototypeGrid_Gray"
			]
		},
		{
			"ShaderMapHash": "837153EB109E894CE6977C95B4B860CF02A9758A",
			"Assets": [
				"/Game/MedievalDungeon/Materials/M_StoneWall_Inst",
				"/Game/MedievalDungeon/Materials/M_BrickFloor_Clean_Inst"
			]
		},
		{
			"ShaderMapHash": "2685AEE053AA37091EF89F8C8AAF073606476CB8",
			"Assets": [
				"/Game/MedievalDungeon/Materials/M_StoneWall_Inst",
				"/Game/MedievalDungeon/Materials/M_BrickFloor_Clean_Inst"
			]
		},
		{
			"ShaderMapHash": "2618E300AA8548720554580F88D0E1391D31DA4C",
			"Assets": [
				"/Engine/EngineSky/M_SimpleSkyDome"
			]
		}
	]
}